<?xml version="1.0" encoding="UTF-8" standalone="no"?>
<svg
   xmlns:dc="http://purl.org/dc/elements/1.1/"
   xmlns:cc="http://creativecommons.org/ns#"
   xmlns:rdf="http://www.w3.org/1999/02/22-rdf-syntax-ns#"
   xmlns:svg="http://www.w3.org/2000/svg"
   xmlns="http://www.w3.org/2000/svg"
   xmlns:xlink="http://www.w3.org/1999/xlink"
   xmlns:sodipodi="http://sodipodi.sourceforge.net/DTD/sodipodi-0.dtd"
   xmlns:inkscape="http://www.inkscape.org/namespaces/inkscape"
   version="1.1"
   id="svg2"
   viewBox="0 0 128 128"
   height="128"
   width="128"
   inkscape:version="0.92.3 (2405546, 2018-03-11)"
   sodipodi:docname="com.gitlab.bitseater.gitdev.svg">
  <sodipodi:namedview
     pagecolor="#ffffff"
     bordercolor="#666666"
     borderopacity="1"
     objecttolerance="10"
     gridtolerance="10"
     guidetolerance="10"
     inkscape:pageopacity="0"
     inkscape:pageshadow="2"
     inkscape:window-width="1366"
     inkscape:window-height="708"
     id="namedview50"
     showgrid="true"
     inkscape:zoom="2.2"
     inkscape:cx="39.083169"
     inkscape:cy="77.489178"
     inkscape:window-x="0"
     inkscape:window-y="28"
     inkscape:window-maximized="1"
     inkscape:current-layer="svg2"
     showguides="false"
     fit-margin-top="0"
     fit-margin-left="0"
     fit-margin-right="0"
     fit-margin-bottom="0">
    <inkscape:grid
       type="xygrid"
       id="grid4154"
       originx="-33.090913"
       originy="-37.135366" />
  </sodipodi:namedview>
  <defs
     id="defs4">
    <linearGradient
       id="linearGradient4181">
      <stop
         id="stop4183"
         offset="0"
         style="stop-color:#000000;stop-opacity:1;" />
      <stop
         id="stop4185"
         offset="1"
         style="stop-color:#000000;stop-opacity:0;" />
    </linearGradient>
    <linearGradient
       id="linearGradient4167">
      <stop
         id="stop4169"
         offset="0"
         style="stop-color:#ffffff;stop-opacity:1;" />
      <stop
         style="stop-color:#ffffff;stop-opacity:0.23529412"
         offset="0.17059492"
         id="stop4175" />
      <stop
         id="stop4177"
         offset="0.82508612"
         style="stop-color:#ffffff;stop-opacity:0.15686275" />
      <stop
         id="stop4171"
         offset="1"
         style="stop-color:#ffffff;stop-opacity:0.39215687" />
    </linearGradient>
    <radialGradient
       gradientTransform="matrix(-2.1505985e-7,2.0192307,-1.6346142,-1.7409595e-7,1634.6199,846.62194)"
       gradientUnits="userSpaceOnUse"
       r="52"
       fy="960.23871"
       fx="57.319054"
       cy="960.23871"
       cx="57.319054"
       id="radialGradient4160"
       xlink:href="#linearGradient3779" />
    <radialGradient
       gradientUnits="userSpaceOnUse"
       gradientTransform="matrix(1,0,0,0.31395349,0,708.5915)"
       r="43"
       fy="1032.8622"
       fx="64"
       cy="1032.8622"
       cx="64"
       id="radialGradient4187"
       xlink:href="#linearGradient4181" />
    <linearGradient
       gradientUnits="userSpaceOnUse"
       y2="1041.274"
       x2="64.396698"
       y1="939.20795"
       x1="64.396698"
       id="linearGradient4166"
       xlink:href="#linearGradient4167" />
    <linearGradient
       id="linearGradient3779">
      <stop
         id="stop3781"
         offset="0"
         style="stop-color:#fafafa;stop-opacity:1;" />
      <stop
         id="stop3783"
         offset="1"
         style="stop-color:#e1e1e1;stop-opacity:1;" />
    </linearGradient>
  </defs>
  <metadata
     id="metadata7">
    <rdf:RDF>
      <cc:Work
         rdf:about="">
        <dc:format>image/svg+xml</dc:format>
        <dc:type
           rdf:resource="http://purl.org/dc/dcmitype/StillImage" />
        <dc:title></dc:title>
      </cc:Work>
    </rdf:RDF>
  </metadata>
  <g
     transform="matrix(0.50789603,0,0,0.50789603,-0.6013301,-403.40964)"
     id="layer1">
    <g
       id="g4153"
       transform="matrix(2.3626883,0,0,2.3502304,-23.121138,-1406.8516)">
      <circle
         style="opacity:1;fill:url(#radialGradient4160);fill-opacity:1;stroke:none;stroke-width:2.91464257;stroke-linejoin:round;stroke-miterlimit:4;stroke-dasharray:none;stroke-opacity:1"
         id="path4136"
         cx="64"
         cy="990.36218"
         r="52" />
      <circle
         r="52"
         cy="990.36218"
         cx="64"
         id="circle4154"
         style="opacity:0.3;fill:none;fill-opacity:1;stroke:#000000;stroke-width:1;stroke-linejoin:round;stroke-miterlimit:4;stroke-dasharray:none;stroke-opacity:1" />
      <circle
         r="51"
         cy="990.36218"
         cx="64"
         id="circle4156"
         style="opacity:0.4;fill:none;fill-opacity:1;stroke:url(#linearGradient4166);stroke-width:1;stroke-linejoin:round;stroke-miterlimit:4;stroke-dasharray:none;stroke-opacity:1" />
      <g
         style="fill:#da4d45;fill-opacity:1"
         id="g6"
         transform="matrix(0.05706948,0,0,0.05706948,38.17427,961.04776)">
        <path
           style="fill:#da4d45;fill-opacity:1"
           id="path8"
           d="m 710.2,150.2 c -77.7,0 -140.2,62.4 -140.2,140.2 0,51.5 28.5,96.4 70.1,120.4 v 19.7 c 0,70.1 -70.1,140.2 -140.2,140.2 -58,0 -104,12 -140.2,31.8 V 270.6 c 41.6,-24.1 70.1,-69 70.1,-120.4 C 429.9,72.4 367.5,10 289.8,10 212,10 149.6,72.4 149.6,150.2 c 0,51.5 28.5,96.4 70.1,120.4 v 458.8 c -41.6,24.1 -70.1,69 -70.1,120.4 0,77.7 62.4,140.2 140.2,140.2 77.7,0 140.2,-62.4 140.2,-140.2 0,-37.2 -14.2,-70.1 -37.2,-95.3 20.8,-25.2 53.7,-44.9 107.3,-44.9 140.2,0 280.3,-140.2 280.3,-280.3 V 409.6 C 822,385.5 850.5,340.6 850.5,289.2 850.5,211.5 788.1,149 710.3,149 v 1.2 z M 289.8,80.1 c 38.3,0 70.1,31.8 70.1,70.1 0,38.3 -31.8,70.1 -70.1,70.1 -38.3,0 -70.1,-31.8 -70.1,-70.1 0,-38.4 31.7,-70.1 70.1,-70.1 z m 0,840.9 c -38.3,0 -70.1,-31.8 -70.1,-70.1 0,-38.3 31.8,-70.1 70.1,-70.1 38.3,0 70.1,31.8 70.1,70.1 0,38.3 -31.8,70.1 -70.1,70.1 z M 710.2,360.4 c -38.3,0 -70.1,-31.8 -70.1,-70.1 0,-38.3 31.8,-70.1 70.1,-70.1 38.3,0 70.1,31.8 70.1,70.1 0,38.3 -31.7,70.1 -70.1,70.1 z"
           inkscape:connector-curvature="0" />
      </g>
    </g>
  </g>
</svg>
